<?xml version="1.0" encoding="UTF-8"?>
<svg width="24" height="24" viewBox="0 0 24 24" xmlns="http://www.w3.org/2000/svg">
 <path d="m22.5 21s1.5 0 1.5-1.5-1.5-6-7.5-6-7.5 4.5-7.5 6 1.5 1.5 1.5 1.5zm-11.969-1.5-0.03125-0.007812c0-0.39453 0.25-1.543 1.1406-2.5781 0.82812-0.96875 2.2812-1.9141 4.8594-1.9141 2.5742 0 4.0312 0.94531 4.8594 1.9141 0.89062 1.0352 1.1367 2.1836 1.1406 2.5781l-0.011719 0.003906-0.019531 0.003906zm5.9688-9c1.6562 0 3-1.3438 3-3s-1.3438-3-3-3-3 1.3438-3 3 1.3438 3 3 3m4.5-3c0 2.4844-2.0156 4.5-4.5 4.5s-4.5-2.0156-4.5-4.5 2.0156-4.5 4.5-4.5 4.5 2.0156 4.5 4.5m-10.598 6.4219c-0.59766-0.19141-1.2188-0.3125-1.8438-0.37109-0.35156-0.035156-0.70312-0.050781-1.0586-0.050781-6 0-7.5 4.5-7.5 6 0 1 0.5 1.5 1.5 1.5h6.3242c-0.22266-0.46875-0.33203-0.98047-0.32422-1.5 0-1.5156 0.56641-3.0625 1.6367-4.3555 0.36328-0.44141 0.78906-0.85547 1.2656-1.2227m-3.0234 1.0781c-0.88672 1.3359-1.3672 2.8984-1.3789 4.5h-4.5c0-0.39062 0.24609-1.5469 1.1406-2.5859 0.81641-0.95312 2.2383-1.8828 4.7383-1.9141zm-5.1289-6.75c0-2.4844 2.0156-4.5 4.5-4.5s4.5 2.0156 4.5 4.5-2.0156 4.5-4.5 4.5-4.5-2.0156-4.5-4.5m4.5-3c-1.6562 0-3 1.3438-3 3s1.3438 3 3 3 3-1.3438 3-3-1.3438-3-3-3"/>
</svg>
